{
  "manifestVersion": "2.2",
  "contracts": {
    "FileToken": "FileToken"
  },
  "dependencies": {
    "@openzeppelin/contracts-ethereum-package": "^2.2.3"
  },
  "name": "docmans-smart-contracts",
  "version": "1.0.0",
  "compiler": {
    "manager": "openzeppelin",
    "compilerSettings": {
      "optimizer": {}
    },
    "solcVersion": "0.5.10"
  }
}